"Book Category Code"	"English Description"	"Chinese Description"
"分類編號"	"英文名稱"	"中文名稱"
"001"	"E0011"	"中00111"
"002"	"E0022"	"中00222"
"003"	"E0033"	"中00333"
"004"	"E0044"	"中00444"
"005"	"E0055"	"中00555"
"006"	"E0066"	"中00666"
