"Subject Group Code"	"Subject Group [Ref]"	"Topic"	"Workload"	"Teacher"	"Start Date"	"Due Date"	"Description [Optional]"	"Hand-in Required [Optional]"	"Homework Type [Optional]"
"(學科組別代號)"	"(學科組別) [參考用途]"	"(標題)"	"(工作量)"	"(老師)"	"(開始日期)"	"(限期)"	"(內容) [非必須的]"	"(須繳交) [非必須的]"	"功課類型 [非必須的]"
"1A"	"1A-English Group"	"English Homework"	1	"broadlearning"	2009-08-04	2009-08-05	"Homework Description"	"Yes"	1
