"EnglishTitle"	"ChineseTitle"	"Type"	"Length"	"Sample1"	"Sample2"
"REGNO"		"str"		"#012345"	"#022345"
"Diligence"	"勤學"	"grade"	2	"B"	"A"
"Discipline"	"紀律"	"grade"	2	"C"	"B"
"Politeness"	"禮貌"	"grade"	2	"A"	"B"
"Sociability"	"群性"	"grade"	2	"B"	"D"
"Tidness"	"整潔"	"grade"	2	"B"	"A"
"Conduct"	"操行"	"grade"	2	"B"	"C"
