"UserLogin"	"Password"	"UserEmail"	"EnglishName"	"ChineseName"	"NickName"	"Gender"	"Mobile"	"Fax"	"Remarks"	"DOB"	"WebSAMSRegNo"	"HKID"	"STRN"
"peteru"	"a"	"peter@zxyz.com"	"Peter Wong"	"王小明"	"PeterW"	"M"	91203544			1988-01-23	"#1100186"	"A103456(7)"	88881788
"maryu"	"aa"	"marychan@xaaa.com"	"Mary Chan"	"陳小麗"	"Mary"	"F"	95687412			1990-01-24	"#10012348"	"B123056(7)"	47944444
"supermanu"	"b"	"superman@cccc.com"	"Ho Chiu Yan"	"何釗仁"	"YanYan"	"M"	95566321			1991-10-09	"#93221002"	"C123450(7)"	99999958
"amyu"	"bb"	"amykwok@amykwok1.com"	"Amy Kwok"	"郭美鳳"	"AMKwok"	"F"	98756412			1993-10-22	"#30212314"	"D103456(7)"	77756777
