UserLogin,Password,UserEmail,EnglishName,FirstName,LastName,ChineseName,Title,Gender,Mobile,ClassNumber,ClassName,CardID	DOB
peter,a,peter@xyz.com,Peter Wong,Peter,Wong,王小明,Mr.,M,91203544,1,4A,0008927792,1988-01-23
mary,aa,marychan@aaa.com,Mary Chan,Mary,Chan,陳小麗,Miss,F,95687412,2,4A,0008925394,1990-01-24
john,aaa,johnlee@bbb.com,John Lee,John,Lee,李志文,Mr.,M,98565444,3,4A,0008918194,1990-07-23
superman,b,superman@ccc.com,Ho Chiu Yan,Chiu Yan,Ho,何釗仁,Mr.,M,95566321,1,4B,0008929038,1991-10-09
amy,bb,amykwok@amykwok.com,Amy Kwok,Amy,Kwok,郭美鳳,Ms,F,98756412,2,4B,0008573912,1993-10-22
