Organization Name,Organization WEBSAMS Code,Group Name(En),Group Name(Chi),Group WEBSAMS Code
(機構),(機構 WebSAMS 代號),(組別(英文)),(組別(中文)),(組別WebSAMS 代號)
F1,S1,S1A,中一(A),F1S1A
F1,S1,S1B,中一(B),F1S1B
F2,S2,S2A,中二(A),F2S2A
