EnglishTitle	ChineseTitle	Type	Length	Sample1	Sample2
REGNO		str		#012345	#022345
Event	課外活動	str		Picture Book Design Competition	Inter-school Swimming 200m Free Style
Award	獎項	str		Second Runner-up	Champion
Punishment	獎懲	str			
