"EnglishTitle"	"ChineseTitle"	"Type"	"Length"	"Sample1"	"Sample2"	"Sample3"
"Class Name"	"(班別)"	"str"		"F1A"		
"Class Number"	"(班號)"	"str"		1		
"User Login"	"(內聯網帳號)"	"str"			"student1"	
"WebSAMSRegNo"	"(WebSAMS 註冊號碼)"	"str"				"#012345"
"Student Name [Ref]"	"(學生姓名) [參考用途]"	"str"		"Wong Siu Ming"	"Chan Siu Man"	
"Activity / Society / Club / Team"	"活動 / 組織 / 學會 / 校隊"	"str"		"Table-tennis Team – 100% attendance"	"Japanese Club – Publicity Secretary"	
"School and Community Services"	"校內及校外服務"	"str"		"Class Committee – Financial Secretary"	"Reading Ambassador"	"Cultural Ambassador"
