BookTitle	BookSubTitle	CallNum	CallNum2	ISBN	ISBN2	Language	Country	Introduction	Edition	PublishYear	Publisher	PublishPlace	Series	SeriesNum	ResponsibilityCode1	ResponsibilityBy1	ResponsibilityCode2	ResponsibilityBy2	ResponsibilityCode3	ResponsibilityBy3	  Dimension	 ILL	NoOfPage	BookCategoryCode	CirculationTypeCode	ResourcesTypeCode	Subject	BookInternalremark	OpenBorrow	OpenReservation	 BookRemarkToUser	Tags	URL	ACNO	barcode	LocationCode	AccountDate	PurchaseDate	PurchasePrice	ListPrice	Discount	Distributor	PurchaseByDepartment	PurchaseNote	InvoiceNumber	 AccompanyMaterial	 ItemRemarkToUser	ItemStatus	ItemCirculationTypeCode	ItemSeriesNum
書目	副題	索書號	索書號2	ISBN	ISBN2	語言	國家	書本簡介	版本    	出版年份	出版商	出版地	集叢	集叢編號	著作方式１	著者名１	著作方式２	著者名２	著作方式３	著者名３	高廣、尺寸	圖片	頁數	圖書分類	借閱分類	物品分類	科目	備註	允許借閱	允許預借	借還提示(書目)	標籤字眼	相關網址	登錄號碼	條碼	館藏位置	登錄日期	購買日期 	購買價格	訂價	折扣	經銷商 	購買部門 	購買備註	發票編號	附件	借還提示(項目)	項目狀態	項目借閱分類	項目集叢編號
Conversations With God (Bk. 1)		211	WAL	9.78034E+12		eng	United States	"Neal Donald Walsch was experiencing a low period in his life when he decided to write a letter to God, venting his frustrations. What he did not expect was a response. As he finished his letter, he was moved to continue writing - and out came extraordinary answers to his questions. This work presents the answers that Walsch received, helping him to change himself, his life and the way he viewed other beings."	FIRST	1997	HODDER & STOUGHTON	UK	CONVERSATIONS WITH GOD	1	A	Neale Donald Walsch	E	"WALSCH, N. D."				P	200	200	Book	Text	Religious Studies		1	1		"CHRISTIANITY,G5 English; 宗教, 哲學 "		C011533	C011533	Library	15/4/2004		95.2	119	20% off		Library	原價:119.00 折扣:20%	E-1430/H854591			AVAILABLE		2
5** SERIES HKDSE MOCK EXAM PAPER 2012		420	ING	9.78988E+12		eng	Hong Kong	"Tailor-made for students sitting the HKDSE English Language exam
"	FIRST	2011	STUDENT HOUSE	HK			A	C. INGLIS					297mm x 210mm		80	400	TeachRef	Text	English		1	1		ENGLISH		C013202	C013202	Teacher Reference	3/10/2011		52.2	58	10% off	THE COMMERCIAL PRESS	Library	"HKD58, LESS 10%"	45733	with CD [ACNO E013203]		PROCESSING		
100 THINGS YOU SHOULD KNOW ABOUT THE HUMAN BODY		612	PAK	9.78184E+12		eng	United States	"Provides a concise and accessible guide and exactly 100 numbered facts that should challenge children, acting as an incentive as they make their way through the book."	FIRST	2003	MILES KELLY PUBLISHING	US			A	STEVE PARKER							100	600	Book	Text	English		1	1		"Science, STEM"		C021268	C021268	Library	12/8/2003		83.12	103.9	20% off		Library	原價:103.90 折扣:20%	E-0286/H734053			ON DISPLAY		
1000 Facts on Ancient Greece		938	MAT	9.78184E+12		eng	United Kingdom		FIRST	2007	Miles Kelly Publishing UK	UK			A	"Matthews, Rupert"	E	 Belinda Gallagher 					224	900	Book	Text	Greece	捐贈書	1	1		GREECE; 歷史;古代 		C012476	C012476	Library	5/4/2008		50	50		SWINDON BOOK CO LTD	Library	捐贈書	LROD-44383/I389926			AVAILABLE		
19TH CENTURY SHORT STORIES		F	HEI	9.78044E+12		eng	United Kingdom	"One of a series of top-quality fiction for schools, this collection of stories has been selected by English teachers for its appeal to Key Stage 4 students. It includes stories by Kate Chopin, Thomas Hardy, Elizabeth Gaskell, Oscar Wilde, Olive Shreiner, Charlotte Bronte and others.

""synopsis"" may belong to another edition of this title."	FIRST	1992	HEINEMANN NEW WINDMILLS	UK			A	Mike Hamlin	E	Jane Browne 					98	F	Book	Text	English		1	1		"English,Fiction"		C011083	C011083	Library	12/10/2002		62.65	76.4	18% off		Library	原價:76.40 折扣:18%	SF02-07466/H516485			AVAILABLE		
10個故事改善人際關係		177.3	7533	9.78962E+12		chi	Hong Kong	本書中的十個故事，刻畫出青少年在成長歷程中種種的人際關係，如父母子女、兄弟姊妹、老師同學、朋輩、鄰居等，提出正面的反思，並給予青少年極有價值的分析和建議，實是青少年不可多得的課外讀物。同學、老師以及青少年社工不妨細讀本書。	初版	2006	開明書店	香港			A	陳鶴安						P	165	100	TeachRef	Text	應用心理學		1	1		"小說, 應用心理學"		E009931	E009931	Teacher Reference	8/11/2007		30.4	38	20% off	三聯書店(香港)有限公司	Library	原價38*27%	5000017831/I389854			AVAILABLE		
世界科技百科		404	4625	9.78962E+12		chi	Hong Kong	"在21世紀，科學技術與我們的生活已經密不可分，亦－科學亦是青少年學生的重要學科，認識基本的科學知識十分重要。 
本書是專為青少年讀者度身定做的科普讀物，全書按不同學科分為9章，分別為：地球、生物、人類生態學、化學及元素、材料及技術、光和能、力和運動、電和電子、時間和空間，由各個科目的專家對各自領域進行簡明的解釋。
本書兼具普及性和深度，既對基本知識進行簡明解釋，又提供專業知識。書內包含大量彩色圖片、科學家與發明家的小傳、列舉了重要科學事件、數據等用表、詳盡的術語表及索引等，方便易用"	初版	2007	三聯書店	香港			A	三聯書店							320	400	Book	Text	技術辭典		1	1		技術辭典		E012959	E012959	Library	9/3/2017		92.4	118	22% off	商務印書館	Library	"HKD118, LESS 22%"	1800442722/GF277 Y787848			AVAILABLE		
Q版特工(18)--不是任務		857	3320	9.78963E+12		chi	Hong Kong	"Q版特工阿Wing表現上是攝影師，實際是國際特工，他走入人群，行蹤飄忽，足跡遍及香港、威尼斯、巴登‧符騰堡、華盛頓。四地不同的故事，涉及大小任務：日本娃娃遭綁架、緝捕犯罪科學家……還有阿Wing的辦私事、談戀愛。他與R小別重逢，兩人於春風落花之間漫步，沒有致命危險，有的只是淡淡柔情似水。特工也是凡人，放下工作擔子、情感的回憶，就讓一切隨風。


作者簡介：

梁科慶，一九八七年畢業於樹仁學院中文系，一九九零年往加拿大升學，後取得文學學士和圖書館及信息學碩士。曾獲青年文學獎報告文學組及文學評論組冠軍。已出版著作十多種，包括《Q版特工》系列。"	初版	2007	突破	香港	Q版特工	18	A	梁科慶					 128mm x 185mm		141	800	Book	Text	小說		1	1		小說		E009984	E009984	Library	12/12/2007		33.36	48	30.5% off	商務印書館	Library	原價48*30.5%	1800261394/I389868			ON DISPLAY		
3C拌通識		521.16	8011	9.78963E+12		chi	Hong Kong	推行通識，成敗關鍵在於閱讀，而且是傳統沉潛的閱讀能力。否則再多的討論、多角度思考反而可能鼓吹了一種「吹水不抹嘴」的歪風。必須讓同學知道，討論、大膽假設，只是做學問的第一步；之後，還是要定下來、專注於沒有花式表演的閱讀。一般同學均以「悶」（沉潛）為死罪。一經同學呻悶的東西即罪該萬死。殊不知身為學生，正要學會善用「悶」、享用「悶」，並接納「悶」。本書以3個C幫助讀者掌握通識的竅門，可以說是通識預備班，帶領讀者注重內容的細節、廣泛地閱讀，並為知識建構系統。 丁丁為你開講通識預備班，傳授累積知識的竅門： 1. Content details（內容要有細節） 2. Comprehensive reading（閱讀要廣泛） 3. Constructing knowledge（為知識建構系統）	初版	2005	突破出版社	香港			A	余非							143	500	Book	Text	教育心理及教育學法		1	1		教育心理及教育學法; 教育心理及教育學法		E011270	E011270	Library	2/11/2010		29.19	42	30.5% off	商務印書館	Library	"HKD42, LESS 30.50%"	1800318831/I551972			AVAILABLE		
$38.5 我把靈魂賣給你		857	1736	9.78962E+12		chi	Hong Kong	一次偶然的網上拍賣，促成一次動人的愛情故事。兩個青年人，在人際關係疏離的大城市裡，發現愛情是將心靈聯繫的最大力量，即使它不能保證可以將關係長久地維繫。	初版	2006	青桐	香港			A	鄧潔明							175	800	Book	Text	小說	捐贈書	1	1		小說		E010779	E010779	Library	26/2/2009		45	45		紫羅蘭書局	Library	捐贈書	SI10030059/I508489			AVAILABLE		
