"Class Name"	"Class Number"	"User Login"	"WebSAMSRegNo"	"Student Name [Ref]"	"Group Name"
"(班別)"	"(班號)"	"(內聯網帳號)"	"(WebSAMS 註冊號碼)"	"(學生姓名) [參考用途]"	"(小組名稱)"
"1B"	1				"Group 2"
		"login_s1"		"Chan Siu Man"	"Group 1"
			"#1986123"	"Wong Siu Ming"	"Group 2"
