"Group Name (English)"	"Group Name (Chinese)"	"Description"	"Storage Quota"	"Use Public Announcements or Events"	"Type"	"Display in eCommunity"	"Allow Group Admin Delete or Edit"
"Group 1"	"小組一"	"XYZ"	10	"Y"	"Miscellaneous"	"Y"	"Y"
"Group 2"	"小組二"	"ABC"	5	"N"	"Academic 行政"	"N"	"N"
