DateFrom	DateEnd	OpenTime	CloseTime	Open
開始日期	結束日期	開館時間	閉館時間	開館 1/ 閉館 0
2013-02-06	2013-03-04	09:30:00	12:30:00	1
2013-02-07	2013-03-05	09:30:00	12:30:00	1
2013-02-08	2013-03-06	09:30:00	12:30:00	3
2013-02-09	2013-03-07	09:30:00	12:30:00	1
2013-02-10	2013-03-08	09:30:00	12:30:00	1
2013-02-11	2013-03-09	09:30:00	12:30:00	1
