"ClassName"	"ClassNumber"	"UserLogin"	"RegNo"	"EnName"	"ChName"	"Phone"	"EmPhone"	"Relation"	"IsMain"	"IsEmergencyContact"	"Occupation"	"CompanyName"	"IsLiveTogether"	"Address"
"1A"	1			"Chan Man"	"陳文"	60223443	26578987	1	1	1	"Driver"	"ABC company"	1	
			"#wongyan"	"Wong Yan"	"黃恩"	9823443	9823443	2	0	0	"Police"		1	
		"leetaiman2"		"Lee Tai Man"	"李大文"	92212343	26546543	1	1	1	"Postman"		0	
