UserLogin,EnName,ChName,Phone,EmPhone,Relation,IsMain,IsEmergencyContact,Occupation,IsLiveTogether,Area,Road,Address
S018160,Chan Man,陳文,60223443,26578987,1,1,1,Driver,1,M,,
S018161,Wong Yan,黃恩,9823443,9823443,2,0,0,Police,1,T,,
S018161,Lee Tai Man,李大文,92212343,26546543,1,1,1,Postman,0,O,,
