Type Name (Chi)	Type Name (Eng)
美術與設計設備	Art and Design Equipment
視聽器材設備	Audio Visual Equipment
書籍、印刷品、影像光碟、光碟及盒帶	"Books, Publications, VCDs, CDs and Tapes"
化學品	Chemicals
清潔服務	Cleaning Services
電腦通訊設備及網絡/導線服務	Computer Communications Equipment and Network / Cabling Services
電腦系統	Computer Systems
窗簾及窗簾布料	Curtains and Draperies
設計及影片/錄影制作服務	Design and Film / Video Production Services
用完即棄的面罩	Disposal Face Masks
電器(家居與辦公室)	Electrical Appliances (Domestic and Office)
檔案服務及印刷與材料製作	Filing Services and Production of Publications and Materials
消防裝置	Fire Fighting Equipment
急救設備與消耗品	First Aid Equipment and Consumables
特殊教育傢具/設備	Furniture / Equipment for Special Education
一般傢具(包括訂做傢具)	General Furniture (including made-to-order)
家政設備	Home Economics Equipment
網頁/互聯網與相關服務	Homepage / Internet and Related Services
人力資源管理	Human Resources Management 
樂器	Musical Instruments
辦公室文具/設備	Office Stationery / Equipment
體育設備	Physical Education Equipment
打印機消耗品	Printer Consumables
印刷服務	Printing Services
物業管理服務	Property Management Services
保護衣物	Protective Clothing
科學設備	Science Equipment
保安護衛服務	Security Guard Services
設計與工藝科(機械)技術設備	Technical Equipment for Design & Technology Subjects (Machines)
探熱針	Thermometers
訓練服務	Training Services 
運輸服務	Transportation Services
維生素	Vitamins
