REG NO.	SCHOOL YEAR	SCHOOL SESSION	CLASS LEVEL	CLASS	CLASS NO	STUDENT ENG NAME	STUDENT CHN NAME	ANP TYPE	ANP DATE	DESCRIPTION	EVENT CODE	CODE DESCRIPTION ENG	CODE DESCRIPTION CHN	LVL1	LVL2	LVL3	LVL4	LVL5	CONDUCT MARK	STAFF CODE	TEACHER ENG NAME	TEACHER CHN NAME	PRINT INDICATOR	ACTION TAKEN	ACTION TAKEN DATE FROM	ACTION TAKEN DATE TO	CLASS DETENTION INDICATOR	REPORT CARD PRINT SEQ	AWARD CATEGORY	AWARD FROM	SLP REMARKS	SLP READ INDICATOR	ANTECEDENCE	ADDENDUM	REMARKS	OTHER LANGUAGE	OTHER ANTECEDENCE	OTHER ADDENDUM	OTHER DESCRIPTION
141A01	2014	Whole Day	S1	1A	1	CHAN TAI MAN	陳大文	P	9/2/2015		1015		不誠實或欺騙師長	1	0	0	0	0	0	3306	TANG CHING YEE	鄧正義	Y				N	0				Y							
141A03	2014	Whole Day	S1	1A	3	CHAN SIU MAN	陳小文	A	1/12/2014	於朗誦比賽表現良好				1	0	0	0	0	0	5001	LO CHING LOI	羅正來	Y				N	0				Y							
141A03	2014	Whole Day	S1	1A	3	CHAN SIU MAN	陳小文	P	18/5/2015		1045		嚴重遲到	2	0	0	0	0	0	7814	LO CHING LOI	羅正來	Y				N	0				Y							
141A16	2014	Whole Day	S1	1A	16	LI TAI MAN	李大文	A	12/1/2015		18		積極參與課堂活動	1	0	0	0	0	0	3306	LO CHING LOI	羅正來	Y				N	0				Y							
141A18	2014	Whole Day	S1	1A	18	LUK SIU FUNG	陸小鳳	A	9/11/2014		25		明愛賣物會，表現良好	1	0	0	0	0	0	7814	LO CHING LOI	羅正來	Y				N	0				Y							
141A18	2014	Whole Day	S1	1A	18	LUK SIU FUNG	陸小鳳	A	1/12/2014	於朗誦比賽表現良好				1	0	0	0	0	0	5001	LO CHING LOI	羅正來	Y				N	0				Y							
141A18	2014	Whole Day	S1	1A	18	LUK SIU FUNG	陸小鳳	P	10/11/2014	交出未完成功課				1	0	0	0	0	0	2303	TANG CHING YEE	鄧正義	Y				N	0				Y							
141A26	2014	Whole Day	S1	1A	26	WONG MAN TAI	黃文大	P	26/11/2014	"屢次功課,拖欠功課多時"				2	0	0	0	0	0	499	TANG CHING YEE	鄧正義	Y				N	0				Y							
131D01	2014	Whole Day	S1	1C	1	AU TAI MAN	區大文	P	20/11/2014		1028		校外行為不檢	0	0	1	0	0	0	594	TANG CHING YEE	鄧正義	Y				N	0				Y							
