"UserLogin","Password","UserEmail","EnglishName","FirstName","LastName","ChineseName","Title","Gender","Mobile","ClassNumber","ClassName","TitleEnglish","TitleChinese","WebSAMSStaffCode","CardID","HKID"
"peter","a","peter@xyz.com","Peter Wong","Peter","Wong","王小明","Mr.","M",91203544,1,"4A","Principal","校長",,11122334,"A123456(7)"
"john","aaa","johnlee@bbb.com","John Lee","John","Lee","李志文","Mr.","M",98565444,3,"4A",,,"s101",11345,"B123456(7)"
"superman","b","superman@ccc.com","Ho Chiu Yan","Chiu Yan","Ho","何釗仁","Mr.","M",95566321,1,"4B",,,,111111,"C123456(7)"
"amy","bb","amykwok@amykwok.com","Amy Kwok","Amy","Kwok","郭美鳳","Ms","F",98756412,2,"4B",,,,8976543,"D123456(7)"
