UserLogin	UserPassword	UserEmail	EnglishName	ChineseName	NickName	Gender	HomeTelNo	MobileTelNo	FaxNo	Barcode	Remark	DateOfBirth	WebSAMSRegNo	HKJApplNo	Address	CardID	HKID	STRN	Nationality	PlaceOfBirth	AdmissionDate	WorkingIndustry	Role	Skill	Lang_Listening	Lang_Spoken	ContactPeriod	District	PassportType	Occupation	Company	PassportNo	Passport_ValidDate	HowToKnowBlissWisdom
peteru	a	peter@zxyz.com	Peter Wong	王小明	PeterW	M	39133000	91203544				23/01/1988	#1100186	40000401		287792	A103456(7)	88881788	HK	HK		其他::無國界	退休／家庭工作	其他::打字好快	普通話	"粵語,普通話,英語,其他::lsitterrnei"	"下午6時﹣晚上9時,晚上9時﹣晚上11時,任何時段"	其他::其他地方	其他::其他護照xx	my job2x	PPT Co. Ltd	Z12312x	01/12/2012	Printed Material
maryu	aa	marychan@xaaa.com	Mary Chan	陳小麗	Mary	F	39133000	95687412				24/01/1990	#10012348	40000402		25394	B123056(7)	47944444	HK	HK	31/08/2005													
supermanu	b	superman@cccc.com	Ho Chiu Yan	何釗仁	YanYan	M		95566321				10/09/1991	#93221002	40000403		289038	C123450(7)	99999958	HK	HK		保安、物業管理		"廣普翻譯,中英翻譯,電腦硬件維修,電腦軟件設計,影片拍攝,表演藝術（戲劇、舞蹈）,中國戲曲,樂器演奏,歌曲演唱,繪畫"	"粵語,普通話"	"粵語,普通話,英語"	"中午12時﹣下午2時,下午2時﹣下午6時,下午6時﹣晚上9時"	油尖旺區	BNO					
amyu	bb	amykwok@amykwok1.com	Amy Kwok	郭美鳳	AMKwok	F		98756412				22/10/1993	#30212314	40000404		853912	D103456(7)	77756777	HK	HK	31/08/2005													
