"Email"	"English Name"	"Chinese Name"	"Forwarding Emails"	"Keep Copy"
"account1@eclass.com.hk"	"Account 1"	"帳戶一"	"account1@gmail.com, account1@yahoo.com.hk"	1
"student1@eclass.com.hk"	"Student 1"	"學生一"	"student1@outlook.com, myaccount@gmail.com"	1
"staff1@eclass.com.hk"	"Staff 1"	"老師一"	"staff1@extmail.com"	1
"parent1@eclass.com.hk"	"Parent 1"	"家長一"	"parent1@gmail.com, parent1@outlook.com"	0
