"UserLogin"	"Password"	"UserEmail"	"EnglishName"	"ChineseName"	"NickName"	"Gender"	"Mobile"	"Fax"	"Barcode"	"Remarks"	"DOB"	"WebSAMSRegNo"	"CardID"	"STRN"	"AppNo"	"Nationality"	"PlaceOfBirth"	"AdmissionDate"
"peteru"	"a"	"peter@xyz.com"	"Peter Wong"	"王小明"	"PeterW"	"M"	91203544				"1988-01-23"	"#110186"	28927792	888888	40000401	"Chinese"	"Hong Kong"	"1992-09-01"
"maryu"	"aa"	"marychan@aaa.com"	"Mary Chan"	"陳小麗"	"Mary"	"F"	95687412				"1990-01-24"	"#1012348"	28925394	999999	40000402			
"supermanu"	"b"	"superman@ccc.com"	"Ho Chiu Yan"	"何釗仁"	"YanYan"	"M"	95566321				"1991-10-09"	"#9322102"	28929038	444444	40000403	"Croatian"		
"amyu"	"bb"	"amykwok@amykwok.com"	"Amy Kwok"	"郭美鳳"	"AMKwok"	"F"	98756412				"1993-10-22"	"#111111"	8573912	124431231	40000404		"Columbia"	"1998-12-25"
