"EnglishTitle","ChineseTitle","Type","Length","Sample1","Sample2"
"REGNO","","str","","#012345","#022345",
"Conduct","操行","grade","2","B-","A"
"Responsibility","責任感","grade","2","B-","A"
"Application","勤學","grade","2","B-","A"
"Neatness","整潔","grade","2","B-","A"