Class	ClassNumber	StudentName	Gender	Conduct	ClassTeacher
1A	10	Chan Tai Ming	Male	B+	Chan Kwok Kin
1A	12	Chan Siu Ming	Male	A-	Chan Kwok Kin
2A	22	Lee Yiu Ho	Female	B-	Ho Ka Lam
2A	23	Ma Hoi Ching	Female	A-	Ho Ka Lam
