EnglishTitle	ChineseTitle	Type	Length	Sample1	Sample2	Sample3
Class Name	(班別)	str		F1A		
Class Number	(班號)	str		1		
User Login	(內聯網帳號)	str			student1	
WebSAMSRegNo	(WebSAMS 註冊號碼)	str				#012345
Student Name [Ref]	(學生姓名) [參考用途]	str		Wong Siu Ming	Chan Siu Man	
Event	(課外活動)	str		Picture Book Design Competition	Inter-school Swimming 200m Free Style	Inter-school Tennis Competition
Award	(獎項)	str		Second Runner-up	Champion	First Runner-up
Punishment	(獎懲)	str				

