EnglishTitle	ChineseTitle	Type	Length	Sample1	Sample2	Sample3
Class Name	(班別)	str		F1A		
Class Number	(班號)	str		1		
User Login	(內聯網帳號)	str			student1	
WebSAMSRegNo	(WebSAMS 註冊號碼)	str				#012345
Student Name [Ref]	(學生姓名) [參考用途]	str		Wong Siu Ming	Chan Siu Man	
Conduct	(操行)	grade	2	B-	A	B+
Courtesy Requirements	(禮貌要求)	num		6	3	3
Appearance Requirements	(儀容要求)	num		5	6	2
Manners and Social Skills	(待人處事)	num		5	3	7
Learning Attitude	(學習態度)	num		8	7	2
Discipline Requirements	(守紀要求)	num		20	18	10
Service Hour	(服務時數紀錄)	num		100	20	0
ConductBonus	(操行加分)	num		2	5	0
Rank	全級排名	num		8	95	80
