"REGNO","ABSENT","LATE","ABSENT_WO_LEAVE","CONDUCT","POLITENESS","BEHAVIOUR","APPLICATION","TIDINESS","MOTIVATION","SELF_CONFIDENCE","SELF_DISCIPLINE", "COURTESY", "HONESTY", "RESPONSIBILITY", "COOPERATION"
"#018333",10,16,2,"C+","A-","A","A+","D","C","B","A","B","C","D","E"
"#A987654",3,8,1,"B+","A-","A","A+","D","C","B","A","B","C","D","E"
